{
  "results": [
    {
      "id": 225591,
      "adult": false
    }
  ],
  "page": 1,
  "total_pages": 18,
  "total_results": 1763
}