{
  "page": 1,
  "results": [
    {
      "description": "",
      "favorite_count": 0,
      "id": 120174,
      "item_count": 5,
      "iso_639_1": "en",
      "list_type": "movie",
      "name": "Test Alpha Sort",
      "poster_path": {}
    }
  ],
  "total_pages": 2,
  "total_results": 25
}