{
  "page": 1,
  "results": [
    {
      "id": 3268,
      "logo_path": "/tuomPhY2UtuPTqqFnKMVHvSb724.png",
      "name": "HBO",
      "origin_country": "US"
    }
  ],
  "total_pages": 2,
  "total_results": 22
}