{
  "page": 1,
  "results": [
    {
      "id": 262419,
      "name": "lost"
    }
  ],
  "total_pages": 5,
  "total_results": 84
}