{
  "results": [
    {
      "id": 1120293,
      "adult": false
    }
  ],
  "page": 3,
  "total_pages": 57,
  "total_results": 5700
}