{
  "results": [
    {
      "id": 4037513,
      "adult": false
    }
  ],
  "page": 1,
  "total_pages": 53,
  "total_results": 5292
}